EESchema Schematic File Version 4
LIBS:312mini-cache
EELAYER 26 0
EELAYER END
$Descr A4 11693 8268
encoding utf-8
Sheet 1 5
Title ""
Date ""
Rev ""
Comp ""
Comment1 ""
Comment2 ""
Comment3 ""
Comment4 ""
$EndDescr
$Sheet
S 5200 3800 950  900 
U 5C9A93F1
F0 "PSU" 50
F1 "PSU.sch" 50
F2 "USB_VIN" I L 5200 4000 50 
F3 "9V_CHA" I R 6150 4000 50 
F4 "9V_CHB" I R 6150 4300 50 
$EndSheet
$Sheet
S 5350 2350 900  900 
U 5C9A93FA
F0 "uC" 50
F1 "uC.sch" 50
F2 "UC_TXD" I L 5350 2700 50 
F3 "UC_RXD" I L 5350 2850 50 
F4 "USB_VIN" I L 5350 2500 50 
F5 "CHA_FET1" I R 6250 2550 50 
F6 "CHA_FET2" I R 6250 2750 50 
F7 "CHA_VSET" I R 6250 2650 50 
F8 "CHB_FET1" I R 6250 2900 50 
F9 "CHB_FET2" I R 6250 3100 50 
F10 "CHB_VSET" I R 6250 3000 50 
F11 "I_MES" I R 6250 2450 50 
$EndSheet
$Sheet
S 7550 3800 1050 950 
U 5C9A9411
F0 "Output" 50
F1 "Output.sch" 50
F2 "CHA_FET1" I L 7550 4000 50 
F3 "CHA_FET2" I L 7550 4200 50 
F4 "CHA_VSET" I L 7550 4100 50 
F5 "CHB_FET1" I L 7550 4400 50 
F6 "CHB_FET2" I L 7550 4600 50 
F7 "CHB_VSET" I L 7550 4500 50 
F8 "CHA_9V" I L 7550 3900 50 
F9 "CHB_9V" I L 7550 4300 50 
F10 "CHA_OUT1" I R 8600 4000 50 
F11 "CHA_OUT2" I R 8600 4100 50 
F12 "CHA_OUT3" I R 8600 4200 50 
F13 "CHB_OUT1" I R 8600 4350 50 
F14 "CHB_OUT2" I R 8600 4450 50 
F15 "CHB_OUT3" I R 8600 4550 50 
F16 "I_MES" I L 7550 4700 50 
$EndSheet
$Comp
L 312mini-rescue:USB_C_Recept_16Pin-riklib J1
U 1 1 5C9A94EA
P 1250 3450
F 0 "J1" H 1355 4767 50  0000 C CNN
F 1 "USB_C_Recept_16Pin" H 1355 4676 50  0000 C CNN
F 2 "rik_lib:USB_C_Recept_16Pin" H -2500 1600 50  0001 C CNN
F 3 "" H -2500 1600 50  0001 C CNN
	1    1250 3450
	1    0    0    -1  
$EndComp
$Comp
L 312mini-rescue:AUDIO_JACK_3.5MM_PTH-sparkfun_connectors J2
U 1 1 5C9A9859
P 9700 3700
F 0 "J2" H 9422 3605 45  0000 R CNN
F 1 "AUDIO_JACK_3.5MM_PTH" H 9422 3689 45  0000 R CNN
F 2 "sparkfun_connectors:AUDIO-JACK" H 9700 4050 20  0001 C CNN
F 3 "" H 9700 3700 50  0001 C CNN
F 4 "CONN-08774" H 9422 3784 60  0000 R CNN "Field4"
	1    9700 3700
	-1   0    0    1   
$EndComp
$Comp
L 312mini-rescue:AUDIO_JACK_3.5MM_PTH-sparkfun_connectors J3
U 1 1 5C9A9911
P 9700 4800
F 0 "J3" H 9422 4705 45  0000 R CNN
F 1 "AUDIO_JACK_3.5MM_PTH" H 9422 4789 45  0000 R CNN
F 2 "sparkfun_connectors:AUDIO-JACK" H 9700 5150 20  0001 C CNN
F 3 "" H 9700 4800 50  0001 C CNN
F 4 "CONN-08774" H 9422 4884 60  0000 R CNN "Field4"
	1    9700 4800
	-1   0    0    1   
$EndComp
$Sheet
S 3050 2400 900  850 
U 5C9C97E1
F0 "UART" 50
F1 "UART.sch" 50
F2 "USB_P" I L 3050 2750 50 
F3 "USB_N" I L 3050 2900 50 
F4 "USB_VIN" I L 3050 2500 50 
F5 "FT_TXD" I R 3950 2600 50 
F6 "FT_RXD" I R 3950 2750 50 
$EndSheet
Wire Wire Line
	4850 2750 4850 2700
Wire Wire Line
	4850 2700 5350 2700
Wire Wire Line
	5350 2850 4900 2850
Wire Wire Line
	4900 2850 4900 2600
Wire Wire Line
	6250 3100 6400 3100
Wire Wire Line
	6400 3100 6400 4600
Wire Wire Line
	6400 4600 7550 4600
Wire Wire Line
	7550 4500 6500 4500
Wire Wire Line
	6500 4500 6500 3000
Wire Wire Line
	6500 3000 6250 3000
Wire Wire Line
	6250 2900 6600 2900
Wire Wire Line
	6600 2900 6600 4400
Wire Wire Line
	6600 4400 7550 4400
Wire Wire Line
	7550 4300 6150 4300
Wire Wire Line
	7550 4200 6700 4200
Wire Wire Line
	6700 4200 6700 2750
Wire Wire Line
	6700 2750 6250 2750
Wire Wire Line
	6250 2650 6800 2650
Wire Wire Line
	6800 2650 6800 4100
Wire Wire Line
	6800 4100 7550 4100
Wire Wire Line
	7550 4000 6900 4000
Wire Wire Line
	6900 4000 6900 2550
Wire Wire Line
	6900 2550 6250 2550
Wire Wire Line
	7550 3900 6250 3900
Wire Wire Line
	6250 3900 6250 4000
Wire Wire Line
	6250 4000 6150 4000
$Comp
L power:GND #PWR01
U 1 1 5C9BDAD2
P 950 5450
F 0 "#PWR01" H 950 5200 50  0001 C CNN
F 1 "GND" H 955 5277 50  0000 C CNN
F 2 "" H 950 5450 50  0001 C CNN
F 3 "" H 950 5450 50  0001 C CNN
	1    950  5450
	1    0    0    -1  
$EndComp
Wire Wire Line
	950  5450 950  5400
Wire Wire Line
	950  5400 1050 5400
Wire Wire Line
	1050 5400 1050 5300
Connection ~ 950  5400
Wire Wire Line
	950  5400 950  5300
Wire Wire Line
	1050 5400 1150 5400
Wire Wire Line
	1150 5400 1150 5300
Connection ~ 1050 5400
Wire Wire Line
	1150 5400 1250 5400
Wire Wire Line
	1250 5400 1250 5300
Connection ~ 1150 5400
Wire Wire Line
	1250 5400 1350 5400
Wire Wire Line
	1350 5400 1350 5300
Connection ~ 1250 5400
NoConn ~ 1850 4900
NoConn ~ 1850 5000
Wire Wire Line
	1850 3500 1900 3500
Wire Wire Line
	1900 3500 1900 3400
Wire Wire Line
	1900 3400 1850 3400
Wire Wire Line
	1850 3300 1900 3300
Wire Wire Line
	1900 3300 1900 3200
Wire Wire Line
	1900 3200 1850 3200
Wire Wire Line
	1900 3200 2600 3200
Wire Wire Line
	2600 3200 2600 2900
Wire Wire Line
	2600 2900 3050 2900
Connection ~ 1900 3200
Wire Wire Line
	1900 3400 2750 3400
Wire Wire Line
	2750 3400 2750 2750
Wire Wire Line
	2750 2750 3050 2750
Connection ~ 1900 3400
$Comp
L Device:R R1
U 1 1 5C9C2D23
P 2050 3800
F 0 "R1" H 1900 3850 50  0000 L CNN
F 1 "5.1K" H 1800 3750 50  0000 L CNN
F 2 "Resistor_SMD:R_0603_1608Metric_Pad1.05x0.95mm_HandSolder" V 1980 3800 50  0001 C CNN
F 3 "~" H 2050 3800 50  0001 C CNN
	1    2050 3800
	1    0    0    -1  
$EndComp
$Comp
L Device:R R2
U 1 1 5C9C3A05
P 2250 3800
F 0 "R2" H 2320 3846 50  0000 L CNN
F 1 "5.1K" H 2320 3755 50  0000 L CNN
F 2 "Resistor_SMD:R_0603_1608Metric_Pad1.05x0.95mm_HandSolder" V 2180 3800 50  0001 C CNN
F 3 "~" H 2250 3800 50  0001 C CNN
	1    2250 3800
	1    0    0    -1  
$EndComp
Wire Wire Line
	2250 3650 2250 2900
Wire Wire Line
	2250 2900 1850 2900
Wire Wire Line
	1850 3000 2050 3000
Wire Wire Line
	2050 3000 2050 3650
$Comp
L power:GND #PWR02
U 1 1 5C9C565F
P 2050 4050
F 0 "#PWR02" H 2050 3800 50  0001 C CNN
F 1 "GND" H 2055 3877 50  0000 C CNN
F 2 "" H 2050 4050 50  0001 C CNN
F 3 "" H 2050 4050 50  0001 C CNN
	1    2050 4050
	1    0    0    -1  
$EndComp
Wire Wire Line
	2050 4050 2050 4000
Wire Wire Line
	2050 4000 2250 4000
Wire Wire Line
	2250 4000 2250 3950
Connection ~ 2050 4000
Wire Wire Line
	2050 4000 2050 3950
Wire Wire Line
	1850 2400 1950 2400
Wire Wire Line
	1950 2400 1950 2500
Wire Wire Line
	1950 2700 1850 2700
Wire Wire Line
	1850 2600 1950 2600
Connection ~ 1950 2600
Wire Wire Line
	1950 2600 1950 2700
Wire Wire Line
	1850 2500 1950 2500
Connection ~ 1950 2500
Wire Wire Line
	1950 2500 1950 2600
Wire Wire Line
	3050 2500 2900 2500
Wire Wire Line
	5200 4000 5050 4000
Connection ~ 2900 2500
Wire Wire Line
	2900 2500 1950 2500
Wire Wire Line
	2900 2200 2900 2500
Wire Wire Line
	6250 2450 7000 2450
Wire Wire Line
	7000 2450 7000 4700
Wire Wire Line
	7000 4700 7550 4700
Wire Wire Line
	9500 5000 9050 5000
Wire Wire Line
	9050 5000 9050 4550
Wire Wire Line
	9050 4550 8600 4550
Wire Wire Line
	8600 4450 9150 4450
Wire Wire Line
	9500 4600 9250 4600
Wire Wire Line
	9250 4600 9250 4350
Wire Wire Line
	9250 4350 8600 4350
Wire Wire Line
	8600 4200 9500 4200
Wire Wire Line
	9500 4200 9500 3900
Wire Wire Line
	9400 4100 8600 4100
Wire Wire Line
	8600 4000 9300 4000
Wire Wire Line
	9300 4000 9300 3500
Wire Wire Line
	9300 3500 9500 3500
Wire Wire Line
	9500 3800 9400 3800
Wire Wire Line
	9400 3800 9400 4100
Wire Wire Line
	9500 4900 9150 4900
Wire Wire Line
	9150 4450 9150 4900
$Comp
L Connector_Generic:Conn_01x06 J8
U 1 1 5CE045A4
P 4500 3700
F 0 "J8" V 4373 3980 50  0000 L CNN
F 1 "Conn_01x06" V 4650 3400 50  0000 L CNN
F 2 "Connector_PinHeader_2.54mm:PinHeader_1x06_P2.54mm_Vertical" H 4500 3700 50  0001 C CNN
F 3 "~" H 4500 3700 50  0001 C CNN
	1    4500 3700
	0    1    1    0   
$EndComp
$Comp
L 312mini-rescue:POWER_JACK-sparkfun_connectors J7
U 1 1 5CE153CB
P 1250 1650
F 0 "J7" H 1206 2040 45  0000 C CNN
F 1 "POWER_JACK" H 1206 1956 45  0000 C CNN
F 2 "sparkfun_connectors:POWER_JACK_PTH" H 1250 1900 20  0001 C CNN
F 3 "" H 1250 1650 50  0001 C CNN
F 4 "CONN-08197" H 1206 1861 60  0000 C CNN "Field4"
	1    1250 1650
	1    0    0    -1  
$EndComp
Wire Wire Line
	5050 4000 5050 3300
Wire Wire Line
	5050 2500 5350 2500
Wire Wire Line
	5050 2500 4950 2500
Connection ~ 5050 2500
Wire Wire Line
	4650 2500 4600 2500
Wire Wire Line
	4600 2500 4600 2200
Wire Wire Line
	4600 2200 2900 2200
Wire Wire Line
	4950 1550 5050 1550
Wire Wire Line
	5050 1550 5050 2500
$Comp
L power:GND #PWR062
U 1 1 5CE3C41A
P 1550 1850
F 0 "#PWR062" H 1550 1600 50  0001 C CNN
F 1 "GND" H 1555 1677 50  0000 C CNN
F 2 "" H 1550 1850 50  0001 C CNN
F 3 "" H 1550 1850 50  0001 C CNN
	1    1550 1850
	1    0    0    -1  
$EndComp
Wire Wire Line
	1450 1650 1550 1650
Wire Wire Line
	1550 1650 1550 1750
Wire Wire Line
	1450 1750 1550 1750
Connection ~ 1550 1750
Wire Wire Line
	1550 1750 1550 1850
Wire Wire Line
	1450 1550 4650 1550
$Comp
L Device:CP C?
U 1 1 5CE52A6A
P 2800 5250
AR Path="/5C9A93F1/5CE52A6A" Ref="C?"  Part="1" 
AR Path="/5CE52A6A" Ref="C1"  Part="1" 
F 0 "C1" H 2918 5296 50  0000 L CNN
F 1 "100u" H 2918 5205 50  0000 L CNN
F 2 "Capacitor_SMD:CP_Elec_6.3x5.4" H 2838 5100 50  0001 C CNN
F 3 "~" H 2800 5250 50  0001 C CNN
	1    2800 5250
	1    0    0    -1  
$EndComp
$Comp
L Device:LED D?
U 1 1 5CE52A71
P 3300 5250
AR Path="/5C9A93F1/5CE52A71" Ref="D?"  Part="1" 
AR Path="/5CE52A71" Ref="D1"  Part="1" 
F 0 "D1" V 3338 5133 50  0000 R CNN
F 1 "LED" V 3247 5133 50  0000 R CNN
F 2 "LED_THT:LED_D3.0mm" H 3300 5250 50  0001 C CNN
F 3 "~" H 3300 5250 50  0001 C CNN
	1    3300 5250
	0    -1   -1   0   
$EndComp
$Comp
L Device:R R?
U 1 1 5CE52A78
P 3300 5700
AR Path="/5C9A93F1/5CE52A78" Ref="R?"  Part="1" 
AR Path="/5CE52A78" Ref="R3"  Part="1" 
F 0 "R3" H 3300 5450 50  0000 L CNN
F 1 "1K" H 3350 5750 50  0000 L CNN
F 2 "Resistor_SMD:R_0603_1608Metric_Pad1.05x0.95mm_HandSolder" V 3230 5700 50  0001 C CNN
F 3 "~" H 3300 5700 50  0001 C CNN
	1    3300 5700
	1    0    0    -1  
$EndComp
$Comp
L power:GND #PWR?
U 1 1 5CE52A7F
P 2800 6000
AR Path="/5C9A93F1/5CE52A7F" Ref="#PWR?"  Part="1" 
AR Path="/5CE52A7F" Ref="#PWR03"  Part="1" 
F 0 "#PWR03" H 2800 5750 50  0001 C CNN
F 1 "GND" H 2805 5827 50  0000 C CNN
F 2 "" H 2800 6000 50  0001 C CNN
F 3 "" H 2800 6000 50  0001 C CNN
	1    2800 6000
	1    0    0    -1  
$EndComp
Wire Wire Line
	2800 6000 2800 5950
Wire Wire Line
	2800 5950 3300 5950
Wire Wire Line
	3300 5950 3300 5850
Connection ~ 2800 5950
Wire Wire Line
	2800 5950 2800 5400
Wire Wire Line
	3300 5550 3300 5400
Wire Wire Line
	3300 5100 3300 5000
Wire Wire Line
	3300 5000 2800 5000
Wire Wire Line
	2800 5000 2800 5100
Connection ~ 2800 5000
$Comp
L Diode:B330 D6
U 1 1 5CE5F19A
P 4800 1550
F 0 "D6" H 4800 1334 50  0000 C CNN
F 1 "B330" H 4800 1425 50  0000 C CNN
F 2 "Diode_SMD:D_SMC" H 4800 1375 50  0001 C CNN
F 3 "http://www.jameco.com/Jameco/Products/ProdDS/1538777.pdf" H 4800 1550 50  0001 C CNN
	1    4800 1550
	-1   0    0    1   
$EndComp
$Comp
L Diode:B330 D7
U 1 1 5CE5F282
P 4800 2500
F 0 "D7" H 4800 2284 50  0000 C CNN
F 1 "B330" H 4800 2375 50  0000 C CNN
F 2 "Diode_SMD:D_SMC" H 4800 2325 50  0001 C CNN
F 3 "http://www.jameco.com/Jameco/Products/ProdDS/1538777.pdf" H 4800 2500 50  0001 C CNN
	1    4800 2500
	-1   0    0    1   
$EndComp
$Comp
L power:GND #PWR063
U 1 1 5CE09328
P 4300 4350
F 0 "#PWR063" H 4300 4100 50  0001 C CNN
F 1 "GND" H 4305 4177 50  0000 C CNN
F 2 "" H 4300 4350 50  0001 C CNN
F 3 "" H 4300 4350 50  0001 C CNN
	1    4300 4350
	1    0    0    -1  
$EndComp
$Comp
L Device:R R48
U 1 1 5CE633FC
P 4300 3050
F 0 "R48" H 4370 3096 50  0000 L CNN
F 1 "5.1K" H 4370 3005 50  0000 L CNN
F 2 "Resistor_SMD:R_0603_1608Metric_Pad1.05x0.95mm_HandSolder" V 4230 3050 50  0001 C CNN
F 3 "~" H 4300 3050 50  0001 C CNN
	1    4300 3050
	1    0    0    -1  
$EndComp
$Comp
L Device:R R?
U 1 1 5CE63467
P 4300 4150
AR Path="/5C9A93F1/5CE63467" Ref="R?"  Part="1" 
AR Path="/5CE63467" Ref="R49"  Part="1" 
F 0 "R49" H 4400 4100 50  0000 L CNN
F 1 "10K" H 4350 4200 50  0000 L CNN
F 2 "Resistor_SMD:R_0603_1608Metric_Pad1.05x0.95mm_HandSolder" V 4230 4150 50  0001 C CNN
F 3 "~" H 4300 4150 50  0001 C CNN
	1    4300 4150
	-1   0    0    1   
$EndComp
Wire Wire Line
	4300 4350 4300 4300
Wire Wire Line
	4300 4000 4300 3500
Wire Wire Line
	4300 3500 4300 3200
Connection ~ 4300 3500
Wire Wire Line
	4300 2900 4300 2750
Wire Wire Line
	4300 2750 4850 2750
Wire Wire Line
	4400 2600 4400 3500
Wire Wire Line
	4400 2600 4900 2600
$Comp
L Device:Jumper_NC_Small JP4
U 1 1 5CE79A15
P 4150 2750
F 0 "JP4" H 4100 2550 50  0000 C CNN
F 1 "JMP" H 4100 2650 50  0000 C CNN
F 2 "Connector_PinSocket_2.54mm:PinSocket_1x02_P2.54mm_Vertical" H 4150 2750 50  0001 C CNN
F 3 "~" H 4150 2750 50  0001 C CNN
	1    4150 2750
	1    0    0    -1  
$EndComp
$Comp
L Device:Jumper_NC_Small JP3
U 1 1 5CE79BAB
P 4150 2600
F 0 "JP3" H 4100 2800 50  0000 C CNN
F 1 "JMP" H 4150 2700 50  0000 C CNN
F 2 "Connector_PinSocket_2.54mm:PinSocket_1x02_P2.54mm_Vertical" H 4150 2600 50  0001 C CNN
F 3 "~" H 4150 2600 50  0001 C CNN
	1    4150 2600
	1    0    0    -1  
$EndComp
Wire Wire Line
	4400 2600 4250 2600
Connection ~ 4400 2600
Wire Wire Line
	4300 2750 4250 2750
Connection ~ 4300 2750
Wire Wire Line
	4050 2750 3950 2750
Wire Wire Line
	3950 2600 4050 2600
$Comp
L power:GND #PWR04
U 1 1 5CE89AF4
P 4500 3350
F 0 "#PWR04" H 4500 3100 50  0001 C CNN
F 1 "GND" H 4505 3177 50  0000 C CNN
F 2 "" H 4500 3350 50  0001 C CNN
F 3 "" H 4500 3350 50  0001 C CNN
	1    4500 3350
	-1   0    0    1   
$EndComp
Wire Wire Line
	4500 3350 4500 3500
Wire Wire Line
	4600 3500 4600 3300
Wire Wire Line
	4600 3300 5050 3300
Connection ~ 5050 3300
Wire Wire Line
	5050 3300 5050 2500
$Comp
L power:+5V #PWR059
U 1 1 5CE977FD
P 2800 4900
F 0 "#PWR059" H 2800 4750 50  0001 C CNN
F 1 "+5V" H 2815 5073 50  0000 C CNN
F 2 "" H 2800 4900 50  0001 C CNN
F 3 "" H 2800 4900 50  0001 C CNN
	1    2800 4900
	1    0    0    -1  
$EndComp
Wire Wire Line
	2800 4900 2800 5000
Text Notes 1800 850  0    50   ~ 0
Enclosure: 4272833
$EndSCHEMATC
