EESchema Schematic File Version 4
LIBS:312mini-cache
EELAYER 26 0
EELAYER END
$Descr A4 11693 8268
encoding utf-8
Sheet 4 5
Title ""
Date ""
Rev ""
Comp ""
Comment1 ""
Comment2 ""
Comment3 ""
Comment4 ""
$EndDescr
Text HLabel 5400 3350 0    50   Input ~ 0
CHA_FET2
Text HLabel 2100 2350 0    50   Input ~ 0
CHA_VSET
Text HLabel 5400 4200 0    50   Input ~ 0
CHB_FET1
Text HLabel 5400 6050 0    50   Input ~ 0
CHB_FET2
Text HLabel 2050 5050 0    50   Input ~ 0
CHB_VSET
Text HLabel 1150 3300 0    50   Input ~ 0
CHA_9V
Text HLabel 1150 4000 0    50   Input ~ 0
CHB_9V
Text HLabel 9100 1800 2    50   Input ~ 0
CHA_OUT1
Text HLabel 9100 2200 2    50   Input ~ 0
CHA_OUT2
Text HLabel 9100 2600 2    50   Input ~ 0
CHA_OUT3
Text HLabel 9150 4500 2    50   Input ~ 0
CHB_OUT1
Text HLabel 9150 4900 2    50   Input ~ 0
CHB_OUT2
Text HLabel 9150 5300 2    50   Input ~ 0
CHB_OUT3
$Comp
L Amplifier_Operational:LM358 U4
U 1 1 5C9DD932
P 3400 2450
F 0 "U4" H 3500 2300 50  0000 C CNN
F 1 "LM358" H 3500 2650 50  0000 C CNN
F 2 "Package_SO:SOIC-8_3.9x4.9mm_P1.27mm" H 3400 2450 50  0001 C CNN
F 3 "http://www.ti.com/lit/ds/symlink/lm2904-n.pdf" H 3400 2450 50  0001 C CNN
	1    3400 2450
	1    0    0    -1  
$EndComp
$Comp
L Amplifier_Operational:LM358 U4
U 2 1 5C9DD99B
P 3350 5150
F 0 "U4" H 3350 5517 50  0000 C CNN
F 1 "LM358" H 3350 5426 50  0000 C CNN
F 2 "Package_SO:SOIC-8_3.9x4.9mm_P1.27mm" H 3350 5150 50  0001 C CNN
F 3 "http://www.ti.com/lit/ds/symlink/lm2904-n.pdf" H 3350 5150 50  0001 C CNN
	2    3350 5150
	1    0    0    -1  
$EndComp
$Comp
L Amplifier_Operational:LM358 U4
U 3 1 5C9DD9EA
P 3400 2450
F 0 "U4" H 3358 2496 50  0000 L CNN
F 1 "LM358" H 3358 2405 50  0000 L CNN
F 2 "Package_SO:SOIC-8_3.9x4.9mm_P1.27mm" H 3400 2450 50  0001 C CNN
F 3 "http://www.ti.com/lit/ds/symlink/lm2904-n.pdf" H 3400 2450 50  0001 C CNN
	3    3400 2450
	1    0    0    -1  
$EndComp
$Comp
L Device:R R27
U 1 1 5C9DDB45
P 2700 2050
F 0 "R27" H 2770 2096 50  0000 L CNN
F 1 "100K" H 2770 2005 50  0000 L CNN
F 2 "Resistor_SMD:R_0603_1608Metric_Pad1.05x0.95mm_HandSolder" V 2630 2050 50  0001 C CNN
F 3 "~" H 2700 2050 50  0001 C CNN
	1    2700 2050
	1    0    0    -1  
$EndComp
$Comp
L Device:R R28
U 1 1 5C9DDB81
P 2700 2650
F 0 "R28" H 2770 2696 50  0000 L CNN
F 1 "100K" H 2770 2605 50  0000 L CNN
F 2 "Resistor_SMD:R_0603_1608Metric_Pad1.05x0.95mm_HandSolder" V 2630 2650 50  0001 C CNN
F 3 "~" H 2700 2650 50  0001 C CNN
	1    2700 2650
	1    0    0    -1  
$EndComp
$Comp
L Device:R R24
U 1 1 5C9DDBC3
P 2400 2350
F 0 "R24" V 2193 2350 50  0000 C CNN
F 1 "100K" V 2284 2350 50  0000 C CNN
F 2 "Resistor_SMD:R_0603_1608Metric_Pad1.05x0.95mm_HandSolder" V 2330 2350 50  0001 C CNN
F 3 "~" H 2400 2350 50  0001 C CNN
	1    2400 2350
	0    1    1    0   
$EndComp
$Comp
L Device:R R32
U 1 1 5C9DDC06
P 3000 2950
F 0 "R32" H 2930 2904 50  0000 R CNN
F 1 "200K" H 2930 2995 50  0000 R CNN
F 2 "Resistor_SMD:R_0603_1608Metric_Pad1.05x0.95mm_HandSolder" V 2930 2950 50  0001 C CNN
F 3 "~" H 3000 2950 50  0001 C CNN
	1    3000 2950
	-1   0    0    1   
$EndComp
$Comp
L Device:R R34
U 1 1 5C9DDCA4
P 3350 1750
F 0 "R34" V 3143 1750 50  0000 C CNN
F 1 "100K" V 3234 1750 50  0000 C CNN
F 2 "Resistor_SMD:R_0603_1608Metric_Pad1.05x0.95mm_HandSolder" V 3280 1750 50  0001 C CNN
F 3 "~" H 3350 1750 50  0001 C CNN
	1    3350 1750
	0    1    1    0   
$EndComp
$Comp
L Device:R R31
U 1 1 5C9DDD0B
P 3000 1500
F 0 "R31" H 2930 1454 50  0000 R CNN
F 1 "100K" H 2930 1545 50  0000 R CNN
F 2 "Resistor_SMD:R_0603_1608Metric_Pad1.05x0.95mm_HandSolder" V 2930 1500 50  0001 C CNN
F 3 "~" H 3000 1500 50  0001 C CNN
	1    3000 1500
	-1   0    0    1   
$EndComp
Wire Wire Line
	3200 1750 3000 1750
Wire Wire Line
	3000 1750 3000 1650
Wire Wire Line
	3000 1750 3000 2550
Connection ~ 3000 1750
Wire Wire Line
	3100 2550 3000 2550
Connection ~ 3000 2550
Wire Wire Line
	3000 2550 3000 2800
Wire Wire Line
	3100 2350 2700 2350
Wire Wire Line
	2700 2350 2700 2200
Wire Wire Line
	2700 2500 2700 2350
Connection ~ 2700 2350
Wire Wire Line
	2550 2350 2700 2350
Wire Wire Line
	3700 2450 3800 2450
Wire Wire Line
	3800 2450 3800 1750
Wire Wire Line
	3800 1750 3500 1750
Wire Wire Line
	2700 3150 3000 3150
Wire Wire Line
	3000 3150 3000 3100
Wire Wire Line
	2700 2800 2700 3150
$Comp
L power:GND #PWR039
U 1 1 5C9DE0C8
P 3000 3200
F 0 "#PWR039" H 3000 2950 50  0001 C CNN
F 1 "GND" H 3005 3027 50  0000 C CNN
F 2 "" H 3000 3200 50  0001 C CNN
F 3 "" H 3000 3200 50  0001 C CNN
	1    3000 3200
	1    0    0    -1  
$EndComp
Wire Wire Line
	3000 3200 3000 3150
Connection ~ 3000 3150
$Comp
L power:GND #PWR041
U 1 1 5C9DE1D7
P 3300 3050
F 0 "#PWR041" H 3300 2800 50  0001 C CNN
F 1 "GND" H 3305 2877 50  0000 C CNN
F 2 "" H 3300 3050 50  0001 C CNN
F 3 "" H 3300 3050 50  0001 C CNN
	1    3300 3050
	1    0    0    -1  
$EndComp
Wire Wire Line
	3300 3050 3300 2750
$Comp
L power:+5V #PWR038
U 1 1 5C9DE609
P 3000 1300
F 0 "#PWR038" H 3000 1150 50  0001 C CNN
F 1 "+5V" H 3015 1473 50  0000 C CNN
F 2 "" H 3000 1300 50  0001 C CNN
F 3 "" H 3000 1300 50  0001 C CNN
	1    3000 1300
	1    0    0    -1  
$EndComp
Wire Wire Line
	3000 1300 3000 1350
$Comp
L power:+9V #PWR032
U 1 1 5C9DE821
P 1300 3300
F 0 "#PWR032" H 1300 3150 50  0001 C CNN
F 1 "+9V" V 1315 3428 50  0000 L CNN
F 2 "" H 1300 3300 50  0001 C CNN
F 3 "" H 1300 3300 50  0001 C CNN
	1    1300 3300
	0    1    1    0   
$EndComp
$Comp
L power:+9VA #PWR033
U 1 1 5C9DE8A6
P 1300 4000
F 0 "#PWR033" H 1300 3875 50  0001 C CNN
F 1 "+9VA" V 1315 4128 50  0000 L CNN
F 2 "" H 1300 4000 50  0001 C CNN
F 3 "" H 1300 4000 50  0001 C CNN
	1    1300 4000
	0    1    1    0   
$EndComp
$Comp
L power:+9V #PWR040
U 1 1 5C9DE8D3
P 3300 2100
F 0 "#PWR040" H 3300 1950 50  0001 C CNN
F 1 "+9V" H 3315 2273 50  0000 C CNN
F 2 "" H 3300 2100 50  0001 C CNN
F 3 "" H 3300 2100 50  0001 C CNN
	1    3300 2100
	1    0    0    -1  
$EndComp
Wire Wire Line
	3300 2100 3300 2150
$Comp
L power:+9V #PWR035
U 1 1 5C9DEA89
P 2700 1850
F 0 "#PWR035" H 2700 1700 50  0001 C CNN
F 1 "+9V" H 2715 2023 50  0000 C CNN
F 2 "" H 2700 1850 50  0001 C CNN
F 3 "" H 2700 1850 50  0001 C CNN
	1    2700 1850
	1    0    0    -1  
$EndComp
Wire Wire Line
	2700 1850 2700 1900
Wire Wire Line
	2100 2350 2250 2350
$Comp
L Device:R R25
U 1 1 5C9DF15D
P 2650 4750
F 0 "R25" H 2720 4796 50  0000 L CNN
F 1 "100K" H 2720 4705 50  0000 L CNN
F 2 "Resistor_SMD:R_0603_1608Metric_Pad1.05x0.95mm_HandSolder" V 2580 4750 50  0001 C CNN
F 3 "~" H 2650 4750 50  0001 C CNN
	1    2650 4750
	1    0    0    -1  
$EndComp
$Comp
L Device:R R26
U 1 1 5C9DF164
P 2650 5350
F 0 "R26" H 2720 5396 50  0000 L CNN
F 1 "100K" H 2720 5305 50  0000 L CNN
F 2 "Resistor_SMD:R_0603_1608Metric_Pad1.05x0.95mm_HandSolder" V 2580 5350 50  0001 C CNN
F 3 "~" H 2650 5350 50  0001 C CNN
	1    2650 5350
	1    0    0    -1  
$EndComp
$Comp
L Device:R R23
U 1 1 5C9DF16B
P 2350 5050
F 0 "R23" V 2143 5050 50  0000 C CNN
F 1 "100K" V 2234 5050 50  0000 C CNN
F 2 "Resistor_SMD:R_0603_1608Metric_Pad1.05x0.95mm_HandSolder" V 2280 5050 50  0001 C CNN
F 3 "~" H 2350 5050 50  0001 C CNN
	1    2350 5050
	0    1    1    0   
$EndComp
$Comp
L Device:R R30
U 1 1 5C9DF172
P 2950 5650
F 0 "R30" H 2880 5604 50  0000 R CNN
F 1 "200K" H 2880 5695 50  0000 R CNN
F 2 "Resistor_SMD:R_0603_1608Metric_Pad1.05x0.95mm_HandSolder" V 2880 5650 50  0001 C CNN
F 3 "~" H 2950 5650 50  0001 C CNN
	1    2950 5650
	-1   0    0    1   
$EndComp
$Comp
L Device:R R33
U 1 1 5C9DF179
P 3300 4450
F 0 "R33" V 3093 4450 50  0000 C CNN
F 1 "100K" V 3184 4450 50  0000 C CNN
F 2 "Resistor_SMD:R_0603_1608Metric_Pad1.05x0.95mm_HandSolder" V 3230 4450 50  0001 C CNN
F 3 "~" H 3300 4450 50  0001 C CNN
	1    3300 4450
	0    1    1    0   
$EndComp
$Comp
L Device:R R29
U 1 1 5C9DF180
P 2950 4200
F 0 "R29" H 2880 4154 50  0000 R CNN
F 1 "100K" H 2880 4245 50  0000 R CNN
F 2 "Resistor_SMD:R_0603_1608Metric_Pad1.05x0.95mm_HandSolder" V 2880 4200 50  0001 C CNN
F 3 "~" H 2950 4200 50  0001 C CNN
	1    2950 4200
	-1   0    0    1   
$EndComp
Wire Wire Line
	3150 4450 2950 4450
Wire Wire Line
	2950 4450 2950 4350
Wire Wire Line
	2950 4450 2950 5250
Connection ~ 2950 4450
Wire Wire Line
	3050 5250 2950 5250
Connection ~ 2950 5250
Wire Wire Line
	2950 5250 2950 5500
Wire Wire Line
	3050 5050 2650 5050
Wire Wire Line
	2650 5050 2650 4900
Wire Wire Line
	2650 5200 2650 5050
Connection ~ 2650 5050
Wire Wire Line
	2500 5050 2650 5050
Wire Wire Line
	3650 5150 3750 5150
Wire Wire Line
	3750 5150 3750 4450
Wire Wire Line
	3750 4450 3450 4450
Wire Wire Line
	2650 5850 2950 5850
Wire Wire Line
	2950 5850 2950 5800
Wire Wire Line
	2650 5500 2650 5850
$Comp
L power:GND #PWR037
U 1 1 5C9DF199
P 2950 5900
F 0 "#PWR037" H 2950 5650 50  0001 C CNN
F 1 "GND" H 2955 5727 50  0000 C CNN
F 2 "" H 2950 5900 50  0001 C CNN
F 3 "" H 2950 5900 50  0001 C CNN
	1    2950 5900
	1    0    0    -1  
$EndComp
Wire Wire Line
	2950 5900 2950 5850
Connection ~ 2950 5850
$Comp
L power:+5V #PWR036
U 1 1 5C9DF1A8
P 2950 4000
F 0 "#PWR036" H 2950 3850 50  0001 C CNN
F 1 "+5V" H 2965 4173 50  0000 C CNN
F 2 "" H 2950 4000 50  0001 C CNN
F 3 "" H 2950 4000 50  0001 C CNN
	1    2950 4000
	1    0    0    -1  
$EndComp
Wire Wire Line
	2950 4000 2950 4050
Wire Wire Line
	2650 4550 2650 4600
Wire Wire Line
	2050 5050 2200 5050
Wire Wire Line
	1300 4000 1150 4000
Wire Wire Line
	1300 3300 1150 3300
$Comp
L power:+9VA #PWR034
U 1 1 5C9E115D
P 2650 4550
F 0 "#PWR034" H 2650 4425 50  0001 C CNN
F 1 "+9VA" H 2665 4723 50  0000 C CNN
F 2 "" H 2650 4550 50  0001 C CNN
F 3 "" H 2650 4550 50  0001 C CNN
	1    2650 4550
	1    0    0    -1  
$EndComp
$Comp
L Device:Q_NMOS_GDSD Q1
U 1 1 5C9E14F6
P 6100 1500
F 0 "Q1" H 6388 1546 50  0000 L CNN
F 1 "IRL520" H 6388 1455 50  0000 L CNN
F 2 "Package_TO_SOT_THT:TO-220-3_Vertical" H 6300 1600 50  0001 C CNN
F 3 "~" H 6100 1500 50  0001 C CNN
	1    6100 1500
	1    0    0    -1  
$EndComp
$Comp
L Device:Q_PMOS_GDSD Q2
U 1 1 5C9E16A7
P 6100 2450
F 0 "Q2" H 6388 2496 50  0000 L CNN
F 1 "IRF9Z24" H 6388 2405 50  0000 L CNN
F 2 "Package_TO_SOT_THT:TO-220-3_Vertical" H 6300 2550 50  0001 C CNN
F 3 "~" H 6100 2450 50  0001 C CNN
	1    6100 2450
	1    0    0    -1  
$EndComp
$Comp
L Device:R R35
U 1 1 5C9E188D
P 5500 1700
F 0 "R35" H 5430 1654 50  0000 R CNN
F 1 "100K" H 5430 1745 50  0000 R CNN
F 2 "Resistor_SMD:R_0603_1608Metric_Pad1.05x0.95mm_HandSolder" V 5430 1700 50  0001 C CNN
F 3 "~" H 5500 1700 50  0001 C CNN
	1    5500 1700
	-1   0    0    1   
$EndComp
$Comp
L Device:R R41
U 1 1 5C9E1915
P 5700 1500
F 0 "R41" V 5907 1500 50  0000 C CNN
F 1 "10K" V 5816 1500 50  0000 C CNN
F 2 "Resistor_SMD:R_0603_1608Metric_Pad1.05x0.95mm_HandSolder" V 5630 1500 50  0001 C CNN
F 3 "~" H 5700 1500 50  0001 C CNN
	1    5700 1500
	0    -1   -1   0   
$EndComp
$Comp
L power:GND #PWR042
U 1 1 5C9E19F6
P 5500 1900
F 0 "#PWR042" H 5500 1650 50  0001 C CNN
F 1 "GND" H 5505 1727 50  0000 C CNN
F 2 "" H 5500 1900 50  0001 C CNN
F 3 "" H 5500 1900 50  0001 C CNN
	1    5500 1900
	1    0    0    -1  
$EndComp
Wire Wire Line
	5500 1900 5500 1850
Wire Wire Line
	5550 1500 5500 1500
Wire Wire Line
	5500 1500 5500 1550
Wire Wire Line
	5850 1500 5900 1500
$Comp
L Device:R R39
U 1 1 5C9E3440
P 5550 2450
F 0 "R39" V 5757 2450 50  0000 C CNN
F 1 "10K" V 5666 2450 50  0000 C CNN
F 2 "Resistor_SMD:R_0603_1608Metric_Pad1.05x0.95mm_HandSolder" V 5480 2450 50  0001 C CNN
F 3 "~" H 5550 2450 50  0001 C CNN
	1    5550 2450
	0    -1   -1   0   
$EndComp
$Comp
L Device:C C13
U 1 1 5C9E34CD
P 5800 2700
F 0 "C13" H 5915 2746 50  0000 L CNN
F 1 "100n" H 5915 2655 50  0000 L CNN
F 2 "Capacitor_SMD:C_0603_1608Metric_Pad1.05x0.95mm_HandSolder" H 5838 2550 50  0001 C CNN
F 3 "~" H 5800 2700 50  0001 C CNN
	1    5800 2700
	1    0    0    -1  
$EndComp
Wire Wire Line
	5700 2450 5800 2450
Wire Wire Line
	5800 2550 5800 2450
Connection ~ 5800 2450
Wire Wire Line
	5800 2450 5900 2450
Wire Wire Line
	5800 2850 5800 2900
Wire Wire Line
	5800 2900 6200 2900
Wire Wire Line
	6200 2900 6200 2650
$Comp
L Device:Q_NMOS_GDSD Q3
U 1 1 5C9E5356
P 6100 3350
F 0 "Q3" H 6388 3396 50  0000 L CNN
F 1 "IRL520" H 6388 3305 50  0000 L CNN
F 2 "Package_TO_SOT_THT:TO-220-3_Vertical" H 6300 3450 50  0001 C CNN
F 3 "~" H 6100 3350 50  0001 C CNN
	1    6100 3350
	1    0    0    -1  
$EndComp
$Comp
L Device:R R36
U 1 1 5C9E535D
P 5500 3550
F 0 "R36" H 5430 3504 50  0000 R CNN
F 1 "100K" H 5430 3595 50  0000 R CNN
F 2 "Resistor_SMD:R_0603_1608Metric_Pad1.05x0.95mm_HandSolder" V 5430 3550 50  0001 C CNN
F 3 "~" H 5500 3550 50  0001 C CNN
	1    5500 3550
	-1   0    0    1   
$EndComp
$Comp
L Device:R R42
U 1 1 5C9E5364
P 5700 3350
F 0 "R42" V 5907 3350 50  0000 C CNN
F 1 "10K" V 5816 3350 50  0000 C CNN
F 2 "Resistor_SMD:R_0603_1608Metric_Pad1.05x0.95mm_HandSolder" V 5630 3350 50  0001 C CNN
F 3 "~" H 5700 3350 50  0001 C CNN
	1    5700 3350
	0    -1   -1   0   
$EndComp
$Comp
L power:GND #PWR043
U 1 1 5C9E536B
P 5500 3750
F 0 "#PWR043" H 5500 3500 50  0001 C CNN
F 1 "GND" H 5505 3577 50  0000 C CNN
F 2 "" H 5500 3750 50  0001 C CNN
F 3 "" H 5500 3750 50  0001 C CNN
	1    5500 3750
	1    0    0    -1  
$EndComp
Wire Wire Line
	5500 3750 5500 3700
Wire Wire Line
	5550 3350 5500 3350
Wire Wire Line
	5500 3350 5500 3400
Wire Wire Line
	5850 3350 5900 3350
$Comp
L Device:Q_NMOS_GDSD Q4
U 1 1 5C9E7C7B
P 6100 4200
F 0 "Q4" H 6388 4246 50  0000 L CNN
F 1 "IRL520" H 6388 4155 50  0000 L CNN
F 2 "Package_TO_SOT_THT:TO-220-3_Vertical" H 6300 4300 50  0001 C CNN
F 3 "~" H 6100 4200 50  0001 C CNN
	1    6100 4200
	1    0    0    -1  
$EndComp
$Comp
L Device:Q_PMOS_GDSD Q5
U 1 1 5C9E7C82
P 6100 5150
F 0 "Q5" H 6388 5196 50  0000 L CNN
F 1 "IRF9Z24" H 6388 5105 50  0000 L CNN
F 2 "Package_TO_SOT_THT:TO-220-3_Vertical" H 6300 5250 50  0001 C CNN
F 3 "~" H 6100 5150 50  0001 C CNN
	1    6100 5150
	1    0    0    -1  
$EndComp
$Comp
L Device:R R37
U 1 1 5C9E7C89
P 5500 4400
F 0 "R37" H 5430 4354 50  0000 R CNN
F 1 "100K" H 5430 4445 50  0000 R CNN
F 2 "Resistor_SMD:R_0603_1608Metric_Pad1.05x0.95mm_HandSolder" V 5430 4400 50  0001 C CNN
F 3 "~" H 5500 4400 50  0001 C CNN
	1    5500 4400
	-1   0    0    1   
$EndComp
$Comp
L Device:R R43
U 1 1 5C9E7C90
P 5700 4200
F 0 "R43" V 5907 4200 50  0000 C CNN
F 1 "10K" V 5816 4200 50  0000 C CNN
F 2 "Resistor_SMD:R_0603_1608Metric_Pad1.05x0.95mm_HandSolder" V 5630 4200 50  0001 C CNN
F 3 "~" H 5700 4200 50  0001 C CNN
	1    5700 4200
	0    -1   -1   0   
$EndComp
$Comp
L power:GND #PWR044
U 1 1 5C9E7C97
P 5500 4600
F 0 "#PWR044" H 5500 4350 50  0001 C CNN
F 1 "GND" H 5505 4427 50  0000 C CNN
F 2 "" H 5500 4600 50  0001 C CNN
F 3 "" H 5500 4600 50  0001 C CNN
	1    5500 4600
	1    0    0    -1  
$EndComp
Wire Wire Line
	5500 4600 5500 4550
Wire Wire Line
	5550 4200 5500 4200
Wire Wire Line
	5500 4200 5500 4250
Wire Wire Line
	5850 4200 5900 4200
$Comp
L Device:R R40
U 1 1 5C9E7CA1
P 5550 5150
F 0 "R40" V 5757 5150 50  0000 C CNN
F 1 "10K" V 5666 5150 50  0000 C CNN
F 2 "Resistor_SMD:R_0603_1608Metric_Pad1.05x0.95mm_HandSolder" V 5480 5150 50  0001 C CNN
F 3 "~" H 5550 5150 50  0001 C CNN
	1    5550 5150
	0    -1   -1   0   
$EndComp
$Comp
L Device:C C14
U 1 1 5C9E7CA8
P 5800 5400
F 0 "C14" H 5915 5446 50  0000 L CNN
F 1 "100n" H 5915 5355 50  0000 L CNN
F 2 "Capacitor_SMD:C_0603_1608Metric_Pad1.05x0.95mm_HandSolder" H 5838 5250 50  0001 C CNN
F 3 "~" H 5800 5400 50  0001 C CNN
	1    5800 5400
	1    0    0    -1  
$EndComp
Wire Wire Line
	5700 5150 5800 5150
Wire Wire Line
	5800 5250 5800 5150
Connection ~ 5800 5150
Wire Wire Line
	5800 5150 5900 5150
Wire Wire Line
	5800 5550 5800 5600
Wire Wire Line
	5800 5600 6200 5600
Wire Wire Line
	6200 5600 6200 5350
$Comp
L Device:Q_NMOS_GDSD Q6
U 1 1 5C9E7CB6
P 6100 6050
F 0 "Q6" H 6388 6096 50  0000 L CNN
F 1 "IRL520" H 6388 6005 50  0000 L CNN
F 2 "Package_TO_SOT_THT:TO-220-3_Vertical" H 6300 6150 50  0001 C CNN
F 3 "~" H 6100 6050 50  0001 C CNN
	1    6100 6050
	1    0    0    -1  
$EndComp
$Comp
L Device:R R38
U 1 1 5C9E7CBD
P 5500 6250
F 0 "R38" H 5430 6204 50  0000 R CNN
F 1 "100K" H 5430 6295 50  0000 R CNN
F 2 "Resistor_SMD:R_0603_1608Metric_Pad1.05x0.95mm_HandSolder" V 5430 6250 50  0001 C CNN
F 3 "~" H 5500 6250 50  0001 C CNN
	1    5500 6250
	-1   0    0    1   
$EndComp
$Comp
L Device:R R44
U 1 1 5C9E7CC4
P 5700 6050
F 0 "R44" V 5907 6050 50  0000 C CNN
F 1 "10K" V 5816 6050 50  0000 C CNN
F 2 "Resistor_SMD:R_0603_1608Metric_Pad1.05x0.95mm_HandSolder" V 5630 6050 50  0001 C CNN
F 3 "~" H 5700 6050 50  0001 C CNN
	1    5700 6050
	0    -1   -1   0   
$EndComp
$Comp
L power:GND #PWR045
U 1 1 5C9E7CCB
P 5500 6450
F 0 "#PWR045" H 5500 6200 50  0001 C CNN
F 1 "GND" H 5505 6277 50  0000 C CNN
F 2 "" H 5500 6450 50  0001 C CNN
F 3 "" H 5500 6450 50  0001 C CNN
	1    5500 6450
	1    0    0    -1  
$EndComp
Wire Wire Line
	5500 6450 5500 6400
Wire Wire Line
	5550 6050 5500 6050
Wire Wire Line
	5500 6050 5500 6100
Wire Wire Line
	5850 6050 5900 6050
$Comp
L 312mini-rescue:Transformer_2P_2S_Sing-riklib T1
U 1 1 5C9EA705
P 8100 5050
F 0 "T1" H 7612 5865 50  0000 C CNN
F 1 "Transformer_2P_2S_Sing" H 7612 5774 50  0000 C CNN
F 2 "rik_lib:42TL004" H 7625 5400 50  0001 C CNN
F 3 "" H 7625 5400 50  0000 C CNN
	1    8100 5050
	1    0    0    -1  
$EndComp
$Comp
L 312mini-rescue:Transformer_2P_2S_Sing-riklib T2
U 1 1 5C9EA7E1
P 8300 2350
F 0 "T2" H 7812 3165 50  0000 C CNN
F 1 "Transformer_2P_2S_Sing" H 7812 3074 50  0000 C CNN
F 2 "rik_lib:42TL004" H 7825 2700 50  0001 C CNN
F 3 "" H 7825 2700 50  0000 C CNN
	1    8300 2350
	1    0    0    -1  
$EndComp
Wire Wire Line
	7400 2200 6300 2200
Wire Wire Line
	6300 2200 6300 2250
Wire Wire Line
	6300 2200 6200 2200
Wire Wire Line
	6200 2200 6200 2250
Connection ~ 6300 2200
Wire Wire Line
	7400 1800 7300 1800
Wire Wire Line
	7300 1800 7300 1200
Wire Wire Line
	7300 1200 6300 1200
Wire Wire Line
	6300 1200 6300 1300
Wire Wire Line
	6300 1200 6200 1200
Wire Wire Line
	6200 1200 6200 1300
Connection ~ 6300 1200
Wire Wire Line
	6200 3150 6200 3050
Wire Wire Line
	6200 3050 6300 3050
Wire Wire Line
	7400 3050 7400 2600
Wire Wire Line
	6300 3150 6300 3050
Connection ~ 6300 3050
Wire Wire Line
	6300 3050 7400 3050
Wire Wire Line
	7200 4900 6300 4900
Wire Wire Line
	6300 4900 6300 4950
Wire Wire Line
	6300 4900 6200 4900
Wire Wire Line
	6200 4900 6200 4950
Connection ~ 6300 4900
Wire Wire Line
	6200 5850 6200 5750
Wire Wire Line
	6200 5750 6300 5750
Wire Wire Line
	7100 5750 7100 5300
Wire Wire Line
	7100 5300 7200 5300
Wire Wire Line
	6300 5850 6300 5750
Connection ~ 6300 5750
Wire Wire Line
	6300 5750 7100 5750
Wire Wire Line
	7200 4500 7100 4500
Wire Wire Line
	7100 4500 7100 3900
Wire Wire Line
	7100 3900 6300 3900
Wire Wire Line
	6200 3900 6200 4000
Wire Wire Line
	6300 4000 6300 3900
Connection ~ 6300 3900
Wire Wire Line
	6300 3900 6200 3900
Wire Wire Line
	3750 5150 5400 5150
Connection ~ 3750 5150
Wire Wire Line
	3800 2450 5400 2450
Connection ~ 3800 2450
Text HLabel 5400 1500 0    50   Input ~ 0
CHA_FET1
Wire Wire Line
	5400 1500 5500 1500
Connection ~ 5500 1500
Wire Wire Line
	5400 3350 5500 3350
Connection ~ 5500 3350
Wire Wire Line
	5400 4200 5500 4200
Connection ~ 5500 4200
Wire Wire Line
	5400 6050 5500 6050
Connection ~ 5500 6050
$Comp
L Device:Jumper_NO_Small JP1
U 1 1 5CA19E49
P 8400 4900
F 0 "JP1" H 8400 5085 50  0000 C CNN
F 1 "Jumper_NO_Small" H 8400 4994 50  0000 C CNN
F 2 "Connector_PinSocket_2.54mm:PinSocket_1x02_P2.54mm_Vertical" H 8400 4900 50  0001 C CNN
F 3 "~" H 8400 4900 50  0001 C CNN
	1    8400 4900
	1    0    0    -1  
$EndComp
$Comp
L Device:Jumper_NO_Small JP2
U 1 1 5CA19F79
P 8500 2200
F 0 "JP2" H 8500 2385 50  0000 C CNN
F 1 "Jumper_NO_Small" H 8500 2294 50  0000 C CNN
F 2 "Connector_PinSocket_2.54mm:PinSocket_1x02_P2.54mm_Vertical" H 8500 2200 50  0001 C CNN
F 3 "~" H 8500 2200 50  0001 C CNN
	1    8500 2200
	1    0    0    -1  
$EndComp
Wire Wire Line
	8200 2600 9100 2600
Wire Wire Line
	9100 2200 8600 2200
Wire Wire Line
	8225 1800 9100 1800
Wire Wire Line
	8225 2200 8400 2200
Wire Wire Line
	8300 4900 8025 4900
Wire Wire Line
	8025 4500 9150 4500
Wire Wire Line
	9150 4900 8500 4900
Wire Wire Line
	9150 5300 8000 5300
$Comp
L power:+9VA #PWR048
U 1 1 5CA42D36
P 6350 5550
F 0 "#PWR048" H 6350 5425 50  0001 C CNN
F 1 "+9VA" H 6365 5723 50  0000 C CNN
F 2 "" H 6350 5550 50  0001 C CNN
F 3 "" H 6350 5550 50  0001 C CNN
	1    6350 5550
	1    0    0    -1  
$EndComp
Wire Wire Line
	6350 5550 6350 5600
Wire Wire Line
	6350 5600 6200 5600
Connection ~ 6200 5600
$Comp
L power:+9V #PWR047
U 1 1 5CA45E84
P 6350 2850
F 0 "#PWR047" H 6350 2700 50  0001 C CNN
F 1 "+9V" H 6365 3023 50  0000 C CNN
F 2 "" H 6350 2850 50  0001 C CNN
F 3 "" H 6350 2850 50  0001 C CNN
	1    6350 2850
	1    0    0    -1  
$EndComp
Wire Wire Line
	6350 2850 6350 2900
Wire Wire Line
	6350 2900 6200 2900
Connection ~ 6200 2900
$Comp
L Device:R R45
U 1 1 5CA4931F
P 6200 6750
F 0 "R45" H 6270 6796 50  0000 L CNN
F 1 "0.5R" H 6270 6705 50  0000 L CNN
F 2 "Resistor_SMD:R_1206_3216Metric_Pad1.42x1.75mm_HandSolder" V 6130 6750 50  0001 C CNN
F 3 "~" H 6200 6750 50  0001 C CNN
	1    6200 6750
	1    0    0    -1  
$EndComp
$Comp
L power:GND #PWR046
U 1 1 5CA493E0
P 6200 7000
F 0 "#PWR046" H 6200 6750 50  0001 C CNN
F 1 "GND" H 6205 6827 50  0000 C CNN
F 2 "" H 6200 7000 50  0001 C CNN
F 3 "" H 6200 7000 50  0001 C CNN
	1    6200 7000
	1    0    0    -1  
$EndComp
Wire Wire Line
	6200 7000 6200 6900
Wire Wire Line
	6200 6600 6200 6400
Wire Wire Line
	6200 6400 6750 6400
Wire Wire Line
	6750 6400 6750 4500
Wire Wire Line
	6750 1800 6200 1800
Wire Wire Line
	6200 1800 6200 1700
Connection ~ 6200 6400
Wire Wire Line
	6200 6400 6200 6250
Wire Wire Line
	6200 3550 6200 3650
Wire Wire Line
	6200 3650 6750 3650
Connection ~ 6750 3650
Wire Wire Line
	6750 3650 6750 1800
Wire Wire Line
	6200 4400 6200 4500
Wire Wire Line
	6200 4500 6750 4500
Connection ~ 6750 4500
Wire Wire Line
	6750 4500 6750 3650
Text HLabel 6000 6400 0    50   Input ~ 0
I_MES
Wire Wire Line
	6000 6400 6200 6400
$EndSCHEMATC
