EESchema Schematic File Version 4
LIBS:312mini-cache
EELAYER 26 0
EELAYER END
$Descr A4 11693 8268
encoding utf-8
Sheet 2 5
Title ""
Date ""
Rev ""
Comp ""
Comment1 ""
Comment2 ""
Comment3 ""
Comment4 ""
$EndDescr
$Comp
L power:+5V #PWR05
U 1 1 5C9A99FD
P 2800 2200
F 0 "#PWR05" H 2800 2050 50  0001 C CNN
F 1 "+5V" H 2815 2373 50  0000 C CNN
F 2 "" H 2800 2200 50  0001 C CNN
F 3 "" H 2800 2200 50  0001 C CNN
	1    2800 2200
	1    0    0    -1  
$EndComp
$Comp
L Regulator_Switching:LMR62014XMF U1
U 1 1 5C9A9D2A
P 3600 2450
F 0 "U1" H 3600 2817 50  0000 C CNN
F 1 "LMR62014XMF" H 3600 2726 50  0000 C CNN
F 2 "Package_TO_SOT_SMD:SOT-23-5" H 3650 2200 50  0001 L CIN
F 3 "http://www.ti.com/lit/ds/symlink/lmr62014.pdf" H 3600 2550 50  0001 C CNN
	1    3600 2450
	1    0    0    -1  
$EndComp
$Comp
L Device:C C2
U 1 1 5C9A9DB5
P 2800 2600
F 0 "C2" H 2915 2646 50  0000 L CNN
F 1 "4.7u" H 2915 2555 50  0000 L CNN
F 2 "Capacitor_SMD:C_0603_1608Metric_Pad1.05x0.95mm_HandSolder" H 2838 2450 50  0001 C CNN
F 3 "~" H 2800 2600 50  0001 C CNN
	1    2800 2600
	1    0    0    -1  
$EndComp
$Comp
L Device:R R4
U 1 1 5C9A9DFC
P 3100 2500
F 0 "R4" H 3100 2250 50  0000 L CNN
F 1 "82K" H 3150 2550 50  0000 L CNN
F 2 "Resistor_SMD:R_0603_1608Metric_Pad1.05x0.95mm_HandSolder" V 3030 2500 50  0001 C CNN
F 3 "~" H 3100 2500 50  0001 C CNN
	1    3100 2500
	1    0    0    -1  
$EndComp
Wire Wire Line
	3100 2650 3100 2700
Wire Wire Line
	3100 2700 3250 2700
Wire Wire Line
	3250 2700 3250 2550
Wire Wire Line
	3250 2550 3300 2550
Wire Wire Line
	3300 2350 3250 2350
Wire Wire Line
	3250 2350 3250 2300
Wire Wire Line
	3250 2300 3100 2300
Wire Wire Line
	2800 2300 2800 2450
Wire Wire Line
	3100 2350 3100 2300
Connection ~ 3100 2300
Wire Wire Line
	3100 2300 2800 2300
Wire Wire Line
	3600 2750 3600 2900
Wire Wire Line
	3600 2900 2800 2900
Wire Wire Line
	2800 2900 2800 2750
$Comp
L Device:R R8
U 1 1 5C9A9F88
P 4450 2550
F 0 "R8" V 4657 2550 50  0000 C CNN
F 1 "82K" V 4566 2550 50  0000 C CNN
F 2 "Resistor_SMD:R_0603_1608Metric_Pad1.05x0.95mm_HandSolder" V 4380 2550 50  0001 C CNN
F 3 "~" H 4450 2550 50  0001 C CNN
	1    4450 2550
	0    -1   -1   0   
$EndComp
$Comp
L Device:R R6
U 1 1 5C9A9FEB
P 4100 3200
F 0 "R6" H 4170 3246 50  0000 L CNN
F 1 "13.3k" H 4170 3155 50  0000 L CNN
F 2 "Resistor_SMD:R_0603_1608Metric_Pad1.05x0.95mm_HandSolder" V 4030 3200 50  0001 C CNN
F 3 "~" H 4100 3200 50  0001 C CNN
	1    4100 3200
	1    0    0    -1  
$EndComp
$Comp
L Device:C C4
U 1 1 5C9AA052
P 4450 2900
F 0 "C4" V 4198 2900 50  0000 C CNN
F 1 "220p" V 4289 2900 50  0000 C CNN
F 2 "Capacitor_SMD:C_0603_1608Metric_Pad1.05x0.95mm_HandSolder" H 4488 2750 50  0001 C CNN
F 3 "~" H 4450 2900 50  0001 C CNN
	1    4450 2900
	0    1    1    0   
$EndComp
$Comp
L Diode:B240 D2
U 1 1 5C9AA10D
P 4450 2250
F 0 "D2" H 4450 2034 50  0000 C CNN
F 1 "B240" H 4450 2125 50  0000 C CNN
F 2 "Diode_SMD:D_SMB" H 4450 2075 50  0001 C CNN
F 3 "http://www.jameco.com/Jameco/Products/ProdDS/1538777.pdf" H 4450 2250 50  0001 C CNN
	1    4450 2250
	-1   0    0    1   
$EndComp
Wire Wire Line
	4300 2250 4150 2250
Wire Wire Line
	4150 2250 4150 2350
Wire Wire Line
	4150 2350 3900 2350
$Comp
L Device:L L1
U 1 1 5C9AA59B
P 3600 1900
F 0 "L1" V 3790 1900 50  0000 C CNN
F 1 "10u" V 3699 1900 50  0000 C CNN
F 2 "Inductor_SMD:L_Coilcraft_XxL4040" H 3600 1900 50  0001 C CNN
F 3 "~" H 3600 1900 50  0001 C CNN
	1    3600 1900
	0    -1   -1   0   
$EndComp
Wire Wire Line
	3450 1900 3250 1900
Wire Wire Line
	3250 1900 3250 2300
Connection ~ 3250 2300
Wire Wire Line
	3750 1900 4150 1900
Wire Wire Line
	4150 1900 4150 2250
Connection ~ 4150 2250
$Comp
L Device:C C6
U 1 1 5C9AA8C4
P 4750 3200
F 0 "C6" H 4865 3246 50  0000 L CNN
F 1 "4.7u" H 4865 3155 50  0000 L CNN
F 2 "Capacitor_SMD:C_0603_1608Metric_Pad1.05x0.95mm_HandSolder" H 4788 3050 50  0001 C CNN
F 3 "~" H 4750 3200 50  0001 C CNN
	1    4750 3200
	1    0    0    -1  
$EndComp
Wire Wire Line
	4600 2250 4750 2250
Wire Wire Line
	4750 2250 4750 2550
Wire Wire Line
	4600 2900 4750 2900
Connection ~ 4750 2900
Wire Wire Line
	4750 2900 4750 3050
Wire Wire Line
	4300 2900 4100 2900
Wire Wire Line
	4100 2900 4100 3050
Wire Wire Line
	4300 2550 4100 2550
Wire Wire Line
	4100 2900 4100 2550
Connection ~ 4100 2900
Connection ~ 4100 2550
Wire Wire Line
	4100 2550 3900 2550
Wire Wire Line
	4600 2550 4750 2550
Connection ~ 4750 2550
Wire Wire Line
	4750 2550 4750 2900
Wire Wire Line
	4750 3350 4750 3450
Wire Wire Line
	4750 3450 4100 3450
Wire Wire Line
	4100 3450 4100 3350
Wire Wire Line
	4100 3450 3600 3450
Wire Wire Line
	3600 3450 3600 2900
Connection ~ 4100 3450
Connection ~ 3600 2900
$Comp
L power:GND #PWR07
U 1 1 5C9AC050
P 3600 3500
F 0 "#PWR07" H 3600 3250 50  0001 C CNN
F 1 "GND" H 3605 3327 50  0000 C CNN
F 2 "" H 3600 3500 50  0001 C CNN
F 3 "" H 3600 3500 50  0001 C CNN
	1    3600 3500
	1    0    0    -1  
$EndComp
Wire Wire Line
	3600 3500 3600 3450
Connection ~ 3600 3450
Wire Wire Line
	2800 2200 2800 2300
Connection ~ 2800 2300
$Comp
L power:+9V #PWR09
U 1 1 5C9B0489
P 4750 2150
F 0 "#PWR09" H 4750 2000 50  0001 C CNN
F 1 "+9V" H 4765 2323 50  0000 C CNN
F 2 "" H 4750 2150 50  0001 C CNN
F 3 "" H 4750 2150 50  0001 C CNN
	1    4750 2150
	1    0    0    -1  
$EndComp
Wire Wire Line
	4750 2150 4750 2250
Connection ~ 4750 2250
$Comp
L power:+5V #PWR06
U 1 1 5C9B22EB
P 2850 4500
F 0 "#PWR06" H 2850 4350 50  0001 C CNN
F 1 "+5V" H 2865 4673 50  0000 C CNN
F 2 "" H 2850 4500 50  0001 C CNN
F 3 "" H 2850 4500 50  0001 C CNN
	1    2850 4500
	1    0    0    -1  
$EndComp
$Comp
L Regulator_Switching:LMR62014XMF U2
U 1 1 5C9B22F1
P 3650 4750
F 0 "U2" H 3650 5117 50  0000 C CNN
F 1 "LMR62014XMF" H 3650 5026 50  0000 C CNN
F 2 "Package_TO_SOT_SMD:SOT-23-5" H 3700 4500 50  0001 L CIN
F 3 "http://www.ti.com/lit/ds/symlink/lmr62014.pdf" H 3650 4850 50  0001 C CNN
	1    3650 4750
	1    0    0    -1  
$EndComp
$Comp
L Device:C C3
U 1 1 5C9B22F8
P 2850 4900
F 0 "C3" H 2965 4946 50  0000 L CNN
F 1 "4.7u" H 2965 4855 50  0000 L CNN
F 2 "Capacitor_SMD:C_0603_1608Metric_Pad1.05x0.95mm_HandSolder" H 2888 4750 50  0001 C CNN
F 3 "~" H 2850 4900 50  0001 C CNN
	1    2850 4900
	1    0    0    -1  
$EndComp
$Comp
L Device:R R5
U 1 1 5C9B22FF
P 3150 4800
F 0 "R5" H 3150 4550 50  0000 L CNN
F 1 "82K" H 3200 4800 50  0000 L CNN
F 2 "Resistor_SMD:R_0603_1608Metric_Pad1.05x0.95mm_HandSolder" V 3080 4800 50  0001 C CNN
F 3 "~" H 3150 4800 50  0001 C CNN
	1    3150 4800
	1    0    0    -1  
$EndComp
Wire Wire Line
	3150 4950 3150 5000
Wire Wire Line
	3150 5000 3300 5000
Wire Wire Line
	3300 5000 3300 4850
Wire Wire Line
	3300 4850 3350 4850
Wire Wire Line
	3350 4650 3300 4650
Wire Wire Line
	3300 4650 3300 4600
Wire Wire Line
	3300 4600 3150 4600
Wire Wire Line
	2850 4600 2850 4750
Wire Wire Line
	3150 4650 3150 4600
Connection ~ 3150 4600
Wire Wire Line
	3150 4600 2850 4600
Wire Wire Line
	3650 5050 3650 5200
Wire Wire Line
	3650 5200 2850 5200
Wire Wire Line
	2850 5200 2850 5050
$Comp
L Device:R R9
U 1 1 5C9B2314
P 4500 4850
F 0 "R9" V 4707 4850 50  0000 C CNN
F 1 "82K" V 4616 4850 50  0000 C CNN
F 2 "Resistor_SMD:R_0603_1608Metric_Pad1.05x0.95mm_HandSolder" V 4430 4850 50  0001 C CNN
F 3 "~" H 4500 4850 50  0001 C CNN
	1    4500 4850
	0    -1   -1   0   
$EndComp
$Comp
L Device:R R7
U 1 1 5C9B231B
P 4150 5500
F 0 "R7" H 4220 5546 50  0000 L CNN
F 1 "13.3k" H 4220 5455 50  0000 L CNN
F 2 "Resistor_SMD:R_0603_1608Metric_Pad1.05x0.95mm_HandSolder" V 4080 5500 50  0001 C CNN
F 3 "~" H 4150 5500 50  0001 C CNN
	1    4150 5500
	1    0    0    -1  
$EndComp
$Comp
L Device:C C5
U 1 1 5C9B2322
P 4500 5200
F 0 "C5" V 4248 5200 50  0000 C CNN
F 1 "220p" V 4339 5200 50  0000 C CNN
F 2 "Capacitor_SMD:C_0603_1608Metric_Pad1.05x0.95mm_HandSolder" H 4538 5050 50  0001 C CNN
F 3 "~" H 4500 5200 50  0001 C CNN
	1    4500 5200
	0    1    1    0   
$EndComp
$Comp
L Diode:B240 D3
U 1 1 5C9B2329
P 4500 4550
F 0 "D3" H 4500 4334 50  0000 C CNN
F 1 "B240" H 4500 4425 50  0000 C CNN
F 2 "Diode_SMD:D_SMB" H 4500 4375 50  0001 C CNN
F 3 "http://www.jameco.com/Jameco/Products/ProdDS/1538777.pdf" H 4500 4550 50  0001 C CNN
	1    4500 4550
	-1   0    0    1   
$EndComp
Wire Wire Line
	4350 4550 4200 4550
Wire Wire Line
	4200 4550 4200 4650
Wire Wire Line
	4200 4650 3950 4650
$Comp
L Device:L L2
U 1 1 5C9B2333
P 3650 4200
F 0 "L2" V 3840 4200 50  0000 C CNN
F 1 "10u" V 3749 4200 50  0000 C CNN
F 2 "Inductor_SMD:L_Coilcraft_XxL4040" H 3650 4200 50  0001 C CNN
F 3 "~" H 3650 4200 50  0001 C CNN
	1    3650 4200
	0    -1   -1   0   
$EndComp
Wire Wire Line
	3500 4200 3300 4200
Wire Wire Line
	3300 4200 3300 4600
Connection ~ 3300 4600
Wire Wire Line
	3800 4200 4200 4200
Wire Wire Line
	4200 4200 4200 4550
Connection ~ 4200 4550
$Comp
L Device:C C7
U 1 1 5C9B2340
P 4800 5500
F 0 "C7" H 4915 5546 50  0000 L CNN
F 1 "4.7u" H 4915 5455 50  0000 L CNN
F 2 "Capacitor_SMD:C_0603_1608Metric_Pad1.05x0.95mm_HandSolder" H 4838 5350 50  0001 C CNN
F 3 "~" H 4800 5500 50  0001 C CNN
	1    4800 5500
	1    0    0    -1  
$EndComp
Wire Wire Line
	4650 4550 4800 4550
Wire Wire Line
	4800 4550 4800 4850
Wire Wire Line
	4650 5200 4800 5200
Connection ~ 4800 5200
Wire Wire Line
	4800 5200 4800 5350
Wire Wire Line
	4350 5200 4150 5200
Wire Wire Line
	4150 5200 4150 5350
Wire Wire Line
	4350 4850 4150 4850
Wire Wire Line
	4150 5200 4150 4850
Connection ~ 4150 5200
Connection ~ 4150 4850
Wire Wire Line
	4150 4850 3950 4850
Wire Wire Line
	4650 4850 4800 4850
Connection ~ 4800 4850
Wire Wire Line
	4800 4850 4800 5200
Wire Wire Line
	4800 5650 4800 5750
Wire Wire Line
	4800 5750 4150 5750
Wire Wire Line
	4150 5750 4150 5650
Wire Wire Line
	4150 5750 3650 5750
Wire Wire Line
	3650 5750 3650 5200
Connection ~ 4150 5750
Connection ~ 3650 5200
$Comp
L power:GND #PWR08
U 1 1 5C9B235D
P 3650 5800
F 0 "#PWR08" H 3650 5550 50  0001 C CNN
F 1 "GND" H 3655 5627 50  0000 C CNN
F 2 "" H 3650 5800 50  0001 C CNN
F 3 "" H 3650 5800 50  0001 C CNN
	1    3650 5800
	1    0    0    -1  
$EndComp
Wire Wire Line
	3650 5800 3650 5750
Connection ~ 3650 5750
Wire Wire Line
	2850 4500 2850 4600
Connection ~ 2850 4600
Wire Wire Line
	4800 4450 4800 4550
Connection ~ 4800 4550
$Comp
L power:+9VA #PWR010
U 1 1 5C9B3BAD
P 4800 4450
F 0 "#PWR010" H 4800 4325 50  0001 C CNN
F 1 "+9VA" H 4815 4623 50  0000 C CNN
F 2 "" H 4800 4450 50  0001 C CNN
F 3 "" H 4800 4450 50  0001 C CNN
	1    4800 4450
	1    0    0    -1  
$EndComp
Text HLabel 4900 2250 2    50   Input ~ 0
9V_CHA
Text HLabel 4950 4550 2    50   Input ~ 0
9V_CHB
Wire Wire Line
	4950 4550 4800 4550
Wire Wire Line
	4750 2250 4900 2250
$Comp
L Device:CP C20
U 1 1 5CDF5A8B
P 5200 3200
F 0 "C20" H 5318 3246 50  0000 L CNN
F 1 "220u" H 5318 3155 50  0000 L CNN
F 2 "Capacitor_SMD:CP_Elec_6.3x5.4" H 5238 3050 50  0001 C CNN
F 3 "~" H 5200 3200 50  0001 C CNN
	1    5200 3200
	1    0    0    -1  
$EndComp
$Comp
L Device:CP C21
U 1 1 5CDF5B59
P 5200 5500
F 0 "C21" H 5318 5546 50  0000 L CNN
F 1 "220u" H 5318 5455 50  0000 L CNN
F 2 "Capacitor_SMD:CP_Elec_6.3x5.4" H 5238 5350 50  0001 C CNN
F 3 "~" H 5200 5500 50  0001 C CNN
	1    5200 5500
	1    0    0    -1  
$EndComp
Wire Wire Line
	4800 5750 5200 5750
Wire Wire Line
	5200 5750 5200 5650
Connection ~ 4800 5750
Wire Wire Line
	5200 5350 5200 5200
Wire Wire Line
	5200 5200 4800 5200
Wire Wire Line
	4750 3450 5200 3450
Wire Wire Line
	5200 3450 5200 3350
Connection ~ 4750 3450
Wire Wire Line
	5200 3050 5200 2900
Wire Wire Line
	5200 2900 4750 2900
$EndSCHEMATC
