EESchema Schematic File Version 4
LIBS:312mini-cache
EELAYER 26 0
EELAYER END
$Descr A4 11693 8268
encoding utf-8
Sheet 5 5
Title ""
Date ""
Rev ""
Comp ""
Comment1 ""
Comment2 ""
Comment3 ""
Comment4 ""
$EndDescr
$Comp
L Interface_USB:FT230XS U6
U 1 1 5C9C99EE
P 5650 3600
F 0 "U6" H 5150 3000 50  0000 C CNN
F 1 "FT230XS" H 5250 4200 50  0000 C CNN
F 2 "Package_SO:SSOP-16_3.9x4.9mm_P0.635mm" H 6100 2950 50  0001 C CNN
F 3 "http://www.ftdichip.com/Products/ICs/FT230X.html" H 5650 3600 50  0001 C CNN
	1    5650 3600
	1    0    0    -1  
$EndComp
Text HLabel 1850 3600 0    50   Input ~ 0
USB_P
Text HLabel 1850 3500 0    50   Input ~ 0
USB_N
$Comp
L Device:C C15
U 1 1 5C9A9E90
P 2100 3950
F 0 "C15" H 2215 3996 50  0000 L CNN
F 1 "47p" H 2150 3850 50  0000 L CNN
F 2 "Capacitor_SMD:C_0603_1608Metric_Pad1.05x0.95mm_HandSolder" H 2138 3800 50  0001 C CNN
F 3 "~" H 2100 3950 50  0001 C CNN
	1    2100 3950
	1    0    0    -1  
$EndComp
$Comp
L Device:C C16
U 1 1 5C9A9EC0
P 2400 3950
F 0 "C16" H 2515 3996 50  0000 L CNN
F 1 "47p" H 2515 3905 50  0000 L CNN
F 2 "Capacitor_SMD:C_0603_1608Metric_Pad1.05x0.95mm_HandSolder" H 2438 3800 50  0001 C CNN
F 3 "~" H 2400 3950 50  0001 C CNN
	1    2400 3950
	1    0    0    -1  
$EndComp
$Comp
L 312mini-rescue:TPD2EUSB30-Power_Protection U5
U 1 1 5C9A9F8F
P 3100 4000
F 0 "U5" H 3100 4367 50  0000 C CNN
F 1 "TPD2EUSB30" H 3100 4276 50  0000 C CNN
F 2 "Package_TO_SOT_SMD:Texas_DRT-3" H 2350 3700 50  0001 C CNN
F 3 "http://www.ti.com/lit/ds/symlink/tpd2eusb30a.pdf" H 3100 4000 50  0001 C CNN
	1    3100 4000
	1    0    0    -1  
$EndComp
$Comp
L Device:R R46
U 1 1 5CDCFEB7
P 4100 3500
F 0 "R46" V 3893 3500 50  0000 C CNN
F 1 "27R" V 3984 3500 50  0000 C CNN
F 2 "Resistor_SMD:R_0603_1608Metric_Pad1.05x0.95mm_HandSolder" V 4030 3500 50  0001 C CNN
F 3 "~" H 4100 3500 50  0001 C CNN
	1    4100 3500
	0    1    1    0   
$EndComp
$Comp
L Device:R R47
U 1 1 5C9AA0A5
P 4100 3600
F 0 "R47" V 4300 3600 50  0000 C CNN
F 1 "27R" V 4200 3600 50  0000 C CNN
F 2 "Resistor_SMD:R_0603_1608Metric_Pad1.05x0.95mm_HandSolder" V 4030 3600 50  0001 C CNN
F 3 "~" H 4100 3600 50  0001 C CNN
	1    4100 3600
	0    1    1    0   
$EndComp
Wire Wire Line
	4250 3600 4950 3600
Wire Wire Line
	4950 3500 4250 3500
Wire Wire Line
	1850 3500 2400 3500
Wire Wire Line
	3950 3600 2650 3600
Wire Wire Line
	2100 3800 2100 3600
Connection ~ 2100 3600
Wire Wire Line
	2100 3600 1850 3600
Wire Wire Line
	2400 3800 2400 3500
Connection ~ 2400 3500
Wire Wire Line
	2400 3500 3550 3500
Wire Wire Line
	2700 4000 2650 4000
Wire Wire Line
	2650 4000 2650 3600
Connection ~ 2650 3600
Wire Wire Line
	2650 3600 2100 3600
Wire Wire Line
	3500 4000 3550 4000
Wire Wire Line
	3550 4000 3550 3500
Connection ~ 3550 3500
Wire Wire Line
	3550 3500 3950 3500
$Comp
L power:GND #PWR051
U 1 1 5C9AA384
P 3100 4500
F 0 "#PWR051" H 3100 4250 50  0001 C CNN
F 1 "GND" H 3105 4327 50  0000 C CNN
F 2 "" H 3100 4500 50  0001 C CNN
F 3 "" H 3100 4500 50  0001 C CNN
	1    3100 4500
	1    0    0    -1  
$EndComp
Wire Wire Line
	3100 4500 3100 4400
$Comp
L power:GND #PWR050
U 1 1 5C9AA48A
P 2400 4150
F 0 "#PWR050" H 2400 3900 50  0001 C CNN
F 1 "GND" H 2405 3977 50  0000 C CNN
F 2 "" H 2400 4150 50  0001 C CNN
F 3 "" H 2400 4150 50  0001 C CNN
	1    2400 4150
	1    0    0    -1  
$EndComp
$Comp
L power:GND #PWR049
U 1 1 5C9AA4A1
P 2100 4150
F 0 "#PWR049" H 2100 3900 50  0001 C CNN
F 1 "GND" H 2105 3977 50  0000 C CNN
F 2 "" H 2100 4150 50  0001 C CNN
F 3 "" H 2100 4150 50  0001 C CNN
	1    2100 4150
	1    0    0    -1  
$EndComp
Wire Wire Line
	2100 4150 2100 4100
Wire Wire Line
	2400 4150 2400 4100
Wire Wire Line
	4950 3200 4850 3200
Wire Wire Line
	4850 3200 4850 3800
Wire Wire Line
	4850 3800 4950 3800
Wire Wire Line
	5750 2900 5750 2800
Wire Wire Line
	5750 2800 4850 2800
Wire Wire Line
	4850 2800 4850 3200
Connection ~ 4850 3200
$Comp
L Device:C C17
U 1 1 5C9AAB33
P 4850 4050
F 0 "C17" H 4965 4096 50  0000 L CNN
F 1 "100n" H 4965 4005 50  0000 L CNN
F 2 "Capacitor_SMD:C_0603_1608Metric_Pad1.05x0.95mm_HandSolder" H 4888 3900 50  0001 C CNN
F 3 "~" H 4850 4050 50  0001 C CNN
	1    4850 4050
	1    0    0    -1  
$EndComp
Wire Wire Line
	4850 4200 4850 4350
Wire Wire Line
	4850 4350 5550 4350
Wire Wire Line
	5550 4350 5550 4300
Wire Wire Line
	5550 4350 5750 4350
Wire Wire Line
	5750 4350 5750 4300
Connection ~ 5550 4350
Wire Wire Line
	4850 3900 4850 3800
Connection ~ 4850 3800
Text HLabel 1800 3250 0    50   Input ~ 0
USB_VIN
Wire Wire Line
	1800 3250 4200 3250
Wire Wire Line
	4200 3250 4200 2550
Wire Wire Line
	4200 2550 5550 2550
Wire Wire Line
	5550 2550 5550 2900
$Comp
L power:+5VD #PWR052
U 1 1 5C9AB782
P 5550 2450
F 0 "#PWR052" H 5550 2300 50  0001 C CNN
F 1 "+5VD" H 5565 2623 50  0000 C CNN
F 2 "" H 5550 2450 50  0001 C CNN
F 3 "" H 5550 2450 50  0001 C CNN
	1    5550 2450
	1    0    0    -1  
$EndComp
Wire Wire Line
	5550 2450 5550 2550
Connection ~ 5550 2550
$Comp
L Device:C C18
U 1 1 5C9ABBB4
P 6000 2600
F 0 "C18" H 6115 2646 50  0000 L CNN
F 1 "100n" H 6115 2555 50  0000 L CNN
F 2 "Capacitor_SMD:C_0603_1608Metric_Pad1.05x0.95mm_HandSolder" H 6038 2450 50  0001 C CNN
F 3 "~" H 6000 2600 50  0001 C CNN
	1    6000 2600
	1    0    0    -1  
$EndComp
$Comp
L power:+5VD #PWR054
U 1 1 5C9ABC12
P 6000 2400
F 0 "#PWR054" H 6000 2250 50  0001 C CNN
F 1 "+5VD" H 6015 2573 50  0000 C CNN
F 2 "" H 6000 2400 50  0001 C CNN
F 3 "" H 6000 2400 50  0001 C CNN
	1    6000 2400
	1    0    0    -1  
$EndComp
$Comp
L power:GND #PWR053
U 1 1 5C9ABC5A
P 5550 4450
F 0 "#PWR053" H 5550 4200 50  0001 C CNN
F 1 "GND" H 5555 4277 50  0000 C CNN
F 2 "" H 5550 4450 50  0001 C CNN
F 3 "" H 5550 4450 50  0001 C CNN
	1    5550 4450
	1    0    0    -1  
$EndComp
Wire Wire Line
	5550 4450 5550 4350
$Comp
L power:GND #PWR055
U 1 1 5C9AC0C5
P 6000 2800
F 0 "#PWR055" H 6000 2550 50  0001 C CNN
F 1 "GND" H 6005 2627 50  0000 C CNN
F 2 "" H 6000 2800 50  0001 C CNN
F 3 "" H 6000 2800 50  0001 C CNN
	1    6000 2800
	1    0    0    -1  
$EndComp
Wire Wire Line
	6000 2800 6000 2750
Wire Wire Line
	6000 2450 6000 2400
$Comp
L Device:C C19
U 1 1 5C9ACA4F
P 6400 2600
F 0 "C19" H 6515 2646 50  0000 L CNN
F 1 "4.7u" H 6515 2555 50  0000 L CNN
F 2 "Capacitor_SMD:C_0603_1608Metric_Pad1.05x0.95mm_HandSolder" H 6438 2450 50  0001 C CNN
F 3 "~" H 6400 2600 50  0001 C CNN
	1    6400 2600
	1    0    0    -1  
$EndComp
$Comp
L power:+5VD #PWR056
U 1 1 5C9ACA56
P 6400 2400
F 0 "#PWR056" H 6400 2250 50  0001 C CNN
F 1 "+5VD" H 6415 2573 50  0000 C CNN
F 2 "" H 6400 2400 50  0001 C CNN
F 3 "" H 6400 2400 50  0001 C CNN
	1    6400 2400
	1    0    0    -1  
$EndComp
$Comp
L power:GND #PWR057
U 1 1 5C9ACA5C
P 6400 2800
F 0 "#PWR057" H 6400 2550 50  0001 C CNN
F 1 "GND" H 6405 2627 50  0000 C CNN
F 2 "" H 6400 2800 50  0001 C CNN
F 3 "" H 6400 2800 50  0001 C CNN
	1    6400 2800
	1    0    0    -1  
$EndComp
Wire Wire Line
	6400 2800 6400 2750
Wire Wire Line
	6400 2450 6400 2400
Text HLabel 6650 3200 2    50   Input ~ 0
FT_TXD
Text HLabel 6650 3300 2    50   Input ~ 0
FT_RXD
Wire Wire Line
	6650 3300 6350 3300
Wire Wire Line
	6350 3200 6650 3200
$EndSCHEMATC
